<?xml version="1.0" encoding="UTF-8" standalone="no"?><!DOCTYPE svg PUBLIC "-//W3C//DTD SVG 1.1//EN" "http://www.w3.org/Graphics/SVG/1.1/DTD/svg11.dtd"><!-- Generated by graphviz version 2.40.1 (20161225.0304)
 --><!-- Title: Character Pages: 1 --><svg xmlns="http://www.w3.org/2000/svg" xmlns:xlink="http://www.w3.org/1999/xlink" width="683pt" height="1052pt" viewBox="0.00 0.00 683.40 1051.60">
<g id="graph0" class="graph" transform="scale(1 1) rotate(0) translate(4 1047.6)">
<title>Character</title>
<polygon fill="#ffffff" stroke="transparent" points="-4,4 -4,-1047.6 679.402,-1047.6 679.402,4 -4,4"/>
<!-- Centrum -->
<g id="node1" class="node">
<title>Centrum</title>
<ellipse fill="none" stroke="#000000" cx="55.5704" cy="-542.8" rx="55.6409" ry="41.0911"/>
<text text-anchor="middle" x="55.5704" y="-555.4" font-family="bold" font-size="14.00" fill="#000000">Biosynt</text>
<text text-anchor="middle" x="55.5704" y="-538.6" font-family="bold" font-size="14.00" fill="#000000"> Medyczny</text>
<text text-anchor="middle" x="55.5704" y="-521.8" font-family="bold" font-size="14.00" fill="#000000">(android)</text>
</g>
<!-- Cechy -->
<g id="node2" class="node">
<title>Cechy</title>
<polygon fill="none" stroke="#000000" points="276.159,-953.4019 197.7741,-953.4019 197.7741,-912.1981 276.159,-912.1981 276.159,-953.4019"/>
<text text-anchor="middle" x="236.9666" y="-937" font-family="Times,serif" font-size="14.00" fill="#000000">Cechy,</text>
<text text-anchor="middle" x="236.9666" y="-920.2" font-family="Times,serif" font-size="14.00" fill="#000000">własności</text>
</g>
<!-- Centrum&#45;&gt;Cechy -->
<g id="edge1" class="edge">
<title>Centrum-&gt;Cechy</title>
<path fill="none" stroke="#000000" d="M65.1479,-583.7682C78.8059,-638.13 106.7749,-736.1598 147.1408,-812.8 164.9317,-846.5786 191.8306,-881.0505 211.5562,-904.3284"/>
<polygon fill="#000000" stroke="#000000" points="209.038,-906.7682 218.2076,-912.0757 214.3491,-902.2084 209.038,-906.7682"/>
</g>
<!-- Wiedza -->
<g id="node3" class="node">
<title>Wiedza</title>
<polygon fill="none" stroke="#000000" points="312.4429,-803.4019 161.4902,-803.4019 161.4902,-762.1981 312.4429,-762.1981 312.4429,-803.4019"/>
<text text-anchor="middle" x="236.9666" y="-787" font-family="Times,serif" font-size="14.00" fill="#000000">Co wie szczególnego</text>
<text text-anchor="middle" x="236.9666" y="-770.2" font-family="Times,serif" font-size="14.00" fill="#000000">Jaką wiedzę dostarcza?</text>
</g>
<!-- Centrum&#45;&gt;Wiedza -->
<g id="edge2" class="edge">
<title>Centrum-&gt;Wiedza</title>
<path fill="none" stroke="#000000" d="M82.9236,-578.9903C119.0182,-626.746 181.8465,-709.8723 215.0124,-753.7531"/>
<polygon fill="#000000" stroke="#000000" points="212.4115,-756.1166 221.2334,-761.9838 217.9959,-751.8958 212.4115,-756.1166"/>
</g>
<!-- Relacje -->
<g id="node4" class="node">
<title>Relacje</title>
<polygon fill="none" stroke="#000000" points="293.26,-623.4019 180.6732,-623.4019 180.6732,-582.1981 293.26,-582.1981 293.26,-623.4019"/>
<text text-anchor="middle" x="236.9666" y="-607" font-family="Times,serif" font-size="14.00" fill="#000000">Unikalne Relacje</text>
<text text-anchor="middle" x="236.9666" y="-590.2" font-family="Times,serif" font-size="14.00" fill="#000000">Z kim się lubi?</text>
</g>
<!-- Centrum&#45;&gt;Relacje -->
<g id="edge3" class="edge">
<title>Centrum-&gt;Relacje</title>
<path fill="none" stroke="#000000" d="M106.5821,-559.673C126.574,-566.2857 149.7705,-573.9584 171.0075,-580.9829"/>
<polygon fill="#000000" stroke="#000000" points="170.0154,-584.3411 180.6087,-584.1586 172.2137,-577.6953 170.0154,-584.3411"/>
</g>
<!-- Zasoby -->
<g id="node5" class="node">
<title>Zasoby</title>
<polygon fill="none" stroke="#000000" points="306.0326,-473.4019 167.9006,-473.4019 167.9006,-432.1981 306.0326,-432.1981 306.0326,-473.4019"/>
<text text-anchor="middle" x="236.9666" y="-457" font-family="Times,serif" font-size="14.00" fill="#000000">Unikalne Zasoby</text>
<text text-anchor="middle" x="236.9666" y="-440.2" font-family="Times,serif" font-size="14.00" fill="#000000">Do czego ma dostęp?</text>
</g>
<!-- Centrum&#45;&gt;Zasoby -->
<g id="edge4" class="edge">
<title>Centrum-&gt;Zasoby</title>
<path fill="none" stroke="#000000" d="M101.8137,-519.8563C127.5413,-507.0915 159.6091,-491.181 186.051,-478.0618"/>
<polygon fill="#000000" stroke="#000000" points="187.7472,-481.1275 195.1496,-473.5476 184.6359,-474.8569 187.7472,-481.1275"/>
</g>
<!-- Akcje -->
<g id="node6" class="node">
<title>Akcje</title>
<polygon fill="none" stroke="#000000" points="326.6185,-299.4019 147.3146,-299.4019 147.3146,-258.1981 326.6185,-258.1981 326.6185,-299.4019"/>
<text text-anchor="middle" x="236.9666" y="-283" font-family="Times,serif" font-size="14.00" fill="#000000">Akcje</text>
<text text-anchor="middle" x="236.9666" y="-266.2" font-family="Times,serif" font-size="14.00" fill="#000000">Co robi szczególnie dobrze?</text>
</g>
<!-- Centrum&#45;&gt;Akcje -->
<g id="edge5" class="edge">
<title>Centrum-&gt;Akcje</title>
<path fill="none" stroke="#000000" d="M80.9838,-505.814C117.4253,-452.7778 183.7789,-356.2082 216.958,-307.9201"/>
<polygon fill="#000000" stroke="#000000" points="219.9741,-309.7109 222.7525,-299.4868 214.2047,-305.7467 219.9741,-309.7109"/>
</g>
<!-- Wpływ -->
<g id="node7" class="node">
<title>Wpływ</title>
<polygon fill="none" stroke="#000000" points="302.2601,-128.8 171.6731,-128.8 171.6731,-92.8 302.2601,-92.8 302.2601,-128.8"/>
<text text-anchor="middle" x="236.9666" y="-106.6" font-family="Times,serif" font-size="14.00" fill="#000000">Czemu Ci zależy?</text>
</g>
<!-- Centrum&#45;&gt;Wpływ -->
<g id="edge6" class="edge">
<title>Centrum-&gt;Wpływ</title>
<path fill="none" stroke="#000000" d="M64.5029,-502.0242C78.0386,-444.024 106.54,-335.1583 147.1408,-248.8 166.5664,-207.4815 196.7165,-164.0048 216.6483,-137.1454"/>
<polygon fill="#000000" stroke="#000000" points="219.5331,-139.1323 222.7341,-129.0325 213.9335,-134.9318 219.5331,-139.1323"/>
</g>
<!-- CechyNode1 -->
<g id="node8" class="node">
<title>CechyNode1</title>
<polygon fill="none" stroke="#000000" points="622.511,-1043.4019 415.6834,-1043.4019 415.6834,-1002.1981 622.511,-1002.1981 622.511,-1043.4019"/>
<text text-anchor="middle" x="519.0972" y="-1027" font-family="Times,serif" font-size="14.00" fill="#000000">Krystaliczna biotech-struktura:</text>
<text text-anchor="middle" x="519.0972" y="-1010.2" font-family="Times,serif" font-size="14.00" fill="#000000">Silny, szybki, odporny, wytrwały</text>
</g>
<!-- Cechy&#45;&gt;CechyNode1 -->
<g id="edge7" class="edge">
<title>Cechy-&gt;CechyNode1</title>
<path fill="none" stroke="#000000" d="M273.9199,-953.5098C298.458,-966.4786 331.7515,-982.6066 362.7924,-992.8 376.4436,-997.2829 390.9981,-1001.1824 405.5257,-1004.5505"/>
<polygon fill="#000000" stroke="#000000" points="405.0444,-1008.0293 415.5675,-1006.7981 406.5734,-1001.1983 405.0444,-1008.0293"/>
</g>
<!-- CechyNode2 -->
<g id="node9" class="node">
<title>CechyNode2</title>
<polygon fill="none" stroke="#000000" points="610.1036,-983.4019 428.0908,-983.4019 428.0908,-942.1981 610.1036,-942.1981 610.1036,-983.4019"/>
<text text-anchor="middle" x="519.0972" y="-967" font-family="Times,serif" font-size="14.00" fill="#000000">Doskonałe zmysły i sensory</text>
<text text-anchor="middle" x="519.0972" y="-950.2" font-family="Times,serif" font-size="14.00" fill="#000000">widzi rzeczy niewidoczne</text>
</g>
<!-- Cechy&#45;&gt;CechyNode2 -->
<g id="edge8" class="edge">
<title>Cechy-&gt;CechyNode2</title>
<path fill="none" stroke="#000000" d="M276.1956,-936.9714C312.7416,-940.8574 368.8134,-946.8198 417.879,-952.0371"/>
<polygon fill="#000000" stroke="#000000" points="417.5974,-955.5268 427.9114,-953.1039 418.3376,-948.566 417.5974,-955.5268"/>
</g>
<!-- CechyNode3 -->
<g id="node10" class="node">
<title>CechyNode3</title>
<polygon fill="none" stroke="#000000" points="613.0333,-923.4019 425.1611,-923.4019 425.1611,-882.1981 613.0333,-882.1981 613.0333,-923.4019"/>
<text text-anchor="middle" x="519.0972" y="-907" font-family="Times,serif" font-size="14.00" fill="#000000">Niemożliwy do zarażenia,</text>
<text text-anchor="middle" x="519.0972" y="-890.2" font-family="Times,serif" font-size="14.00" fill="#000000">nieludzki umysł</text>
</g>
<!-- Cechy&#45;&gt;CechyNode3 -->
<g id="edge9" class="edge">
<title>Cechy-&gt;CechyNode3</title>
<path fill="none" stroke="#000000" d="M276.1956,-928.6286C312.0292,-924.8183 366.6348,-919.0119 415.0018,-913.8688"/>
<polygon fill="#000000" stroke="#000000" points="415.6453,-917.3202 425.2192,-912.7824 414.9051,-910.3595 415.6453,-917.3202"/>
</g>
<!-- WiedzaNode1 -->
<g id="node11" class="node">
<title>WiedzaNode1</title>
<polygon fill="none" stroke="#000000" points="647.5876,-863.4019 390.6068,-863.4019 390.6068,-822.1981 647.5876,-822.1981 647.5876,-863.4019"/>
<text text-anchor="middle" x="519.0972" y="-847" font-family="Times,serif" font-size="14.00" fill="#000000">Zna tereny gdzie nikt nie chodzi</text>
<text text-anchor="middle" x="519.0972" y="-830.2" font-family="Times,serif" font-size="14.00" fill="#000000">Wie jak przetrwać w skrajnych warunkach</text>
</g>
<!-- Wiedza&#45;&gt;WiedzaNode1 -->
<g id="edge10" class="edge">
<title>Wiedza-&gt;WiedzaNode1</title>
<path fill="none" stroke="#000000" d="M312.3608,-801.352C328.9432,-805.2712 346.4359,-809.2822 362.7924,-812.8 374.2944,-815.2737 386.2941,-817.7544 398.3079,-820.1714"/>
<polygon fill="#000000" stroke="#000000" points="397.9003,-823.6591 408.3921,-822.1851 399.2711,-816.7946 397.9003,-823.6591"/>
</g>
<!-- WiedzaNode2 -->
<g id="node12" class="node">
<title>WiedzaNode2</title>
<polygon fill="none" stroke="#000000" points="622.8668,-803.4019 415.3276,-803.4019 415.3276,-762.1981 622.8668,-762.1981 622.8668,-803.4019"/>
<text text-anchor="middle" x="519.0972" y="-787" font-family="Times,serif" font-size="14.00" fill="#000000">Pozyskuje wiedzę o stanie załogi</text>
<text text-anchor="middle" x="519.0972" y="-770.2" font-family="Times,serif" font-size="14.00" fill="#000000">Systemy medyczne i raporty</text>
</g>
<!-- Wiedza&#45;&gt;WiedzaNode2 -->
<g id="edge11" class="edge">
<title>Wiedza-&gt;WiedzaNode2</title>
<path fill="none" stroke="#000000" d="M312.5724,-782.8C341.0718,-782.8 374.1514,-782.8 405.373,-782.8"/>
<polygon fill="#000000" stroke="#000000" points="405.4364,-786.3001 415.4364,-782.8 405.4363,-779.3001 405.4364,-786.3001"/>
</g>
<!-- RelacjeNode1 -->
<g id="node13" class="node">
<title>RelacjeNode1</title>
<polygon fill="none" stroke="#000000" points="632.3142,-743.4019 405.8802,-743.4019 405.8802,-702.1981 632.3142,-702.1981 632.3142,-743.4019"/>
<text text-anchor="middle" x="519.0972" y="-727" font-family="Times,serif" font-size="14.00" fill="#000000">Artur Tavit, arystokrata</text>
<text text-anchor="middle" x="519.0972" y="-710.2" font-family="Times,serif" font-size="14.00" fill="#000000">(który pomaga integrować biosynty)</text>
</g>
<!-- Relacje&#45;&gt;RelacjeNode1 -->
<g id="edge12" class="edge">
<title>Relacje-&gt;RelacjeNode1</title>
<path fill="none" stroke="#000000" d="M259.6718,-623.74C283.5322,-644.5499 323.0541,-675.7518 362.7924,-692.8 373.2017,-697.2657 384.2851,-701.0705 395.5598,-704.3115"/>
<polygon fill="#000000" stroke="#000000" points="394.9369,-707.7692 405.505,-707.017 396.7744,-701.0147 394.9369,-707.7692"/>
</g>
<!-- RelacjeNode2 -->
<g id="node14" class="node">
<title>RelacjeNode2</title>
<polygon fill="none" stroke="#000000" points="618.0762,-683.4019 420.1182,-683.4019 420.1182,-642.1981 618.0762,-642.1981 618.0762,-683.4019"/>
<text text-anchor="middle" x="519.0972" y="-667" font-family="Times,serif" font-size="14.00" fill="#000000">Delgado Vitriol, biosynt bojowy</text>
<text text-anchor="middle" x="519.0972" y="-650.2" font-family="Times,serif" font-size="14.00" fill="#000000">(który unika i nienawidzi ludzi)</text>
</g>
<!-- Relacje&#45;&gt;RelacjeNode2 -->
<g id="edge13" class="edge">
<title>Relacje-&gt;RelacjeNode2</title>
<path fill="none" stroke="#000000" d="M293.5307,-616.8513C315.1525,-622.0738 340.0689,-627.9129 362.7924,-632.8 378.0046,-636.0716 394.0874,-639.3556 409.9218,-642.4881"/>
<polygon fill="#000000" stroke="#000000" points="409.2516,-645.9232 419.7389,-644.4175 410.6016,-639.0546 409.2516,-645.9232"/>
</g>
<!-- RelacjeNode3 -->
<g id="node15" class="node">
<title>RelacjeNode3</title>
<polygon fill="none" stroke="#000000" points="652.3177,-623.4019 385.8766,-623.4019 385.8766,-582.1981 652.3177,-582.1981 652.3177,-623.4019"/>
<text text-anchor="middle" x="519.0972" y="-607" font-family="Times,serif" font-size="14.00" fill="#000000">Dorion Fughar, gladiator-mawirowiec</text>
<text text-anchor="middle" x="519.0972" y="-590.2" font-family="Times,serif" font-size="14.00" fill="#000000">niejeden raz składał jego i innych na arenie</text>
</g>
<!-- Relacje&#45;&gt;RelacjeNode3 -->
<g id="edge14" class="edge">
<title>Relacje-&gt;RelacjeNode3</title>
<path fill="none" stroke="#000000" d="M293.3818,-602.8C317.2603,-602.8 346.2739,-602.8 375.4355,-602.8"/>
<polygon fill="#000000" stroke="#000000" points="375.7484,-606.3001 385.7483,-602.8 375.7483,-599.3001 375.7484,-606.3001"/>
</g>
<!-- RelacjeNode4 -->
<g id="node16" class="node">
<title>RelacjeNode4</title>
<polygon fill="none" stroke="#000000" points="606.0768,-563.4019 432.1175,-563.4019 432.1175,-522.1981 606.0768,-522.1981 606.0768,-563.4019"/>
<text text-anchor="middle" x="519.0972" y="-547" font-family="Times,serif" font-size="14.00" fill="#000000">Niewiele zaufania na stacji;</text>
<text text-anchor="middle" x="519.0972" y="-530.2" font-family="Times,serif" font-size="14.00" fill="#000000">biosynty są PODEJRZANE</text>
</g>
<!-- Relacje&#45;&gt;RelacjeNode4 -->
<g id="edge15" class="edge">
<title>Relacje-&gt;RelacjeNode4</title>
<path fill="none" stroke="#000000" d="M293.5307,-588.7487C315.1525,-583.5262 340.0689,-577.6871 362.7924,-572.8 381.9733,-568.6748 402.5384,-564.5301 422.2444,-560.694"/>
<polygon fill="#000000" stroke="#000000" points="422.9949,-564.1138 432.1479,-558.7777 421.6651,-557.2413 422.9949,-564.1138"/>
</g>
<!-- ZasobyNode1 -->
<g id="node17" class="node">
<title>ZasobyNode1</title>
<polygon fill="none" stroke="#000000" points="668.5806,-503.4019 369.6138,-503.4019 369.6138,-462.1981 668.5806,-462.1981 668.5806,-503.4019"/>
<text text-anchor="middle" x="519.0972" y="-487" font-family="Times,serif" font-size="14.00" fill="#000000">Akceptowany przez półświatek i mawirowców;</text>
<text text-anchor="middle" x="519.0972" y="-470.2" font-family="Times,serif" font-size="14.00" fill="#000000">będą z nim rozmawiać i dopuszczą do swoich</text>
</g>
<!-- Zasoby&#45;&gt;ZasobyNode1 -->
<g id="edge16" class="edge">
<title>Zasoby-&gt;ZasobyNode1</title>
<path fill="none" stroke="#000000" d="M306.3448,-460.1772C322.7335,-461.9199 340.8803,-463.8495 359.4646,-465.8257"/>
<polygon fill="#000000" stroke="#000000" points="359.2054,-469.3178 369.5195,-466.8948 359.9457,-462.357 359.2054,-469.3178"/>
</g>
<!-- ZasobyNode2 -->
<g id="node18" class="node">
<title>ZasobyNode2</title>
<polygon fill="none" stroke="#000000" points="644.4136,-443.4019 393.7807,-443.4019 393.7807,-402.1981 644.4136,-402.1981 644.4136,-443.4019"/>
<text text-anchor="middle" x="519.0972" y="-427" font-family="Times,serif" font-size="14.00" fill="#000000">Dostęp do systemów medycznych;</text>
<text text-anchor="middle" x="519.0972" y="-410.2" font-family="Times,serif" font-size="14.00" fill="#000000">nikt nie przejmuje się że coś się dowie</text>
</g>
<!-- Zasoby&#45;&gt;ZasobyNode2 -->
<g id="edge17" class="edge">
<title>Zasoby-&gt;ZasobyNode2</title>
<path fill="none" stroke="#000000" d="M306.3448,-445.4228C329.7097,-442.9383 356.6481,-440.0738 383.3332,-437.2363"/>
<polygon fill="#000000" stroke="#000000" points="383.9664,-440.6888 393.5402,-436.1509 383.2261,-433.728 383.9664,-440.6888"/>
</g>
<!-- ZasobyNode3 -->
<g id="node19" class="node">
<title>ZasobyNode3</title>
<polygon fill="none" stroke="#000000" points="651.1016,-383.4019 387.0928,-383.4019 387.0928,-342.1981 651.1016,-342.1981 651.1016,-383.4019"/>
<text text-anchor="middle" x="519.0972" y="-367" font-family="Times,serif" font-size="14.00" fill="#000000">Ignorowany z perspektywy politycznej;</text>
<text text-anchor="middle" x="519.0972" y="-350.2" font-family="Times,serif" font-size="14.00" fill="#000000">gdzie nie wejdzie, ignorują, jak 'odkurzacz'</text>
</g>
<!-- Zasoby&#45;&gt;ZasobyNode3 -->
<g id="edge18" class="edge">
<title>Zasoby-&gt;ZasobyNode3</title>
<path fill="none" stroke="#000000" d="M273.9199,-432.0902C298.458,-419.1214 331.7515,-402.9934 362.7924,-392.8 370.1758,-390.3754 377.8235,-388.1214 385.5883,-386.0299"/>
<polygon fill="#000000" stroke="#000000" points="386.6735,-389.3643 395.4752,-383.4668 384.9169,-382.5883 386.6735,-389.3643"/>
</g>
<!-- AkcjeNode1 -->
<g id="node20" class="node">
<title>AkcjeNode1</title>
<polygon fill="none" stroke="#000000" points="640.9025,-323.8 397.2919,-323.8 397.2919,-287.8 640.9025,-287.8 640.9025,-323.8"/>
<text text-anchor="middle" x="519.0972" y="-301.6" font-family="Times,serif" font-size="14.00" fill="#000000">Bada i ocenia stan fizyczny i psychiczny</text>
</g>
<!-- Akcje&#45;&gt;AkcjeNode1 -->
<g id="edge19" class="edge">
<title>Akcje-&gt;AkcjeNode1</title>
<path fill="none" stroke="#000000" d="M326.6221,-287.3801C345.896,-289.2246 366.6533,-291.2111 387.1527,-293.1729"/>
<polygon fill="#000000" stroke="#000000" points="386.8997,-296.6646 397.1876,-294.1332 387.5666,-289.6964 386.8997,-296.6646"/>
</g>
<!-- AkcjeNode2 -->
<g id="node21" class="node">
<title>AkcjeNode2</title>
<polygon fill="none" stroke="#000000" points="675.207,-269.8 362.9873,-269.8 362.9873,-233.8 675.207,-233.8 675.207,-269.8"/>
<text text-anchor="middle" x="519.0972" y="-247.6" font-family="Times,serif" font-size="14.00" fill="#000000">Porusza się w sposób niezauważany przez innych</text>
</g>
<!-- Akcje&#45;&gt;AkcjeNode2 -->
<g id="edge20" class="edge">
<title>Akcje-&gt;AkcjeNode2</title>
<path fill="none" stroke="#000000" d="M326.6221,-270.2199C335.1214,-269.4065 343.9092,-268.5656 352.8361,-267.7112"/>
<polygon fill="#000000" stroke="#000000" points="353.3449,-271.1786 362.966,-266.7418 352.678,-264.2105 353.3449,-271.1786"/>
</g>
<!-- AkcjeNode3 -->
<g id="node22" class="node">
<title>AkcjeNode3</title>
<polygon fill="none" stroke="#000000" points="668.2826,-215.8 369.9117,-215.8 369.9117,-179.8 668.2826,-179.8 668.2826,-215.8"/>
<text text-anchor="middle" x="519.0972" y="-193.6" font-family="Times,serif" font-size="14.00" fill="#000000">Obserwuje ślady i zauważa rzeczy niewidoczne</text>
</g>
<!-- Akcje&#45;&gt;AkcjeNode3 -->
<g id="edge21" class="edge">
<title>Akcje-&gt;AkcjeNode3</title>
<path fill="none" stroke="#000000" d="M278.2837,-258.1538C302.4092,-246.8436 333.7339,-233.4152 362.7924,-224.8 370.8574,-222.4089 379.2233,-220.204 387.7033,-218.1749"/>
<polygon fill="#000000" stroke="#000000" points="388.7398,-221.5279 397.6993,-215.873 387.1689,-214.7064 388.7398,-221.5279"/>
</g>
<!-- WpływNode1 -->
<g id="node23" class="node">
<title>WpływNode1</title>
<polygon fill="none" stroke="#000000" points="626.6618,-161.4019 411.5326,-161.4019 411.5326,-120.1981 626.6618,-120.1981 626.6618,-161.4019"/>
<text text-anchor="middle" x="519.0972" y="-145" font-family="Times,serif" font-size="14.00" fill="#000000">Więcej pacjentów i podejrzeń</text>
<text text-anchor="middle" x="519.0972" y="-128.2" font-family="Times,serif" font-size="14.00" fill="#000000">to mniej ludzi i więcej problemów</text>
</g>
<!-- Wpływ&#45;&gt;WpływNode1 -->
<g id="edge22" class="edge">
<title>Wpływ-&gt;WpływNode1</title>
<path fill="none" stroke="#000000" d="M302.4021,-117.758C331.8853,-120.8931 367.6264,-124.6935 401.5083,-128.2963"/>
<polygon fill="#000000" stroke="#000000" points="401.1658,-131.7796 411.4798,-129.3566 401.906,-124.8188 401.1658,-131.7796"/>
</g>
<!-- WpływNode2 -->
<g id="node24" class="node">
<title>WpływNode2</title>
<polygon fill="none" stroke="#000000" points="627.3141,-101.4019 410.8803,-101.4019 410.8803,-60.1981 627.3141,-60.1981 627.3141,-101.4019"/>
<text text-anchor="middle" x="519.0972" y="-85" font-family="Times,serif" font-size="14.00" fill="#000000">Biosynty są podejrzane,</text>
<text text-anchor="middle" x="519.0972" y="-68.2" font-family="Times,serif" font-size="14.00" fill="#000000"> że to ich wina (nie wiadomo jak)</text>
</g>
<!-- Wpływ&#45;&gt;WpływNode2 -->
<g id="edge23" class="edge">
<title>Wpływ-&gt;WpływNode2</title>
<path fill="none" stroke="#000000" d="M302.4021,-103.842C331.6113,-100.7361 366.9625,-96.977 400.563,-93.4042"/>
<polygon fill="#000000" stroke="#000000" points="401.352,-96.8401 410.9258,-92.3023 400.6117,-89.8794 401.352,-96.8401"/>
</g>
<!-- WpływNode3 -->
<g id="node25" class="node">
<title>WpływNode3</title>
<polygon fill="none" stroke="#000000" points="622.5817,-41.4019 415.6126,-41.4019 415.6126,-.1981 622.5817,-.1981 622.5817,-41.4019"/>
<text text-anchor="middle" x="519.0972" y="-25" font-family="Times,serif" font-size="14.00" fill="#000000">Integracja ludzi i biosyntów</text>
<text text-anchor="middle" x="519.0972" y="-8.2" font-family="Times,serif" font-size="14.00" fill="#000000">jest bardzo świeża i delikatna...</text>
</g>
<!-- Wpływ&#45;&gt;WpływNode3 -->
<g id="edge24" class="edge">
<title>Wpływ-&gt;WpływNode3</title>
<path fill="none" stroke="#000000" d="M268.8735,-92.778C293.7611,-79.4207 329.5672,-61.7107 362.7924,-50.8 376.4436,-46.3171 390.9981,-42.4176 405.5257,-39.0495"/>
<polygon fill="#000000" stroke="#000000" points="406.5734,-42.4017 415.5675,-36.8019 405.0444,-35.5707 406.5734,-42.4017"/>
</g>
</g>
</svg>